*** Darwin 10x10 ***
Turn = 0.
  0123456789
0 ..h......r
1 .f....t...
2 f.........
3 .r....ht..
4 f.r.......
5 ......fh.f
6 f..f......
7 ...h..fh.t
8 ...t.h....
9 f...r.h..f

Turn = 2.
  0123456789
0 h........r
1 .f....t...
2 f.........
3 ...r...t..
4 f...r.hh..
5 ......f..f
6 f..f......
7 .....hfh.t
8 ...th.....
9 f....rr..f

Turn = 4.
  0123456789
0 h........r
1 .f....t...
2 f.........
3 .....r.t..
4 f....rrh..
5 .........f
6 f..f..r...
7 .....hrh.t
8 ...tt.r...
9 f....r...f

Turn = 6.
  0123456789
0 h.........
1 .f....t...
2 f........r
3 .....rrr..
4 f.....r...
5 ......r..f
6 f..f.r....
7 .....rrh.t
8 ...ttr....
9 f......r.f

Turn = 8.
  0123456789
0 h.........
1 .f...rt...
2 f.....r...
3 ..........
4 f...r....r
5 ....r..r.f
6 f..rr.r...
7 .....rh..t
8 ...trr...r
9 f.......r.

Turn = 10.
  0123456789
0 h....r....
1 .f...rr...
2 f.........
3 ..........
4 f.r...r...
5 ..r....r.r
6 f.r......r
7 ...r.r.r.r
8 ...rr.r...
9 f....r...r

*** Darwin 10x10 ***
Turn = 0.
  0123456789
0 .t..r.....
1 ...t.....t
2 t.t.hh....
3 r...hft...
4 ...fr.fr..
5 ..........
6 r..r.r.ht.
7 t....t..tf
8 f.........
9 ...tr.....

Turn = 2.
  0123456789
0 .t....r...
1 ...t.....t
2 t.t.hh.r..
3 t...htr...
4 ...f.rr...
5 ..........
6 .rr....ht.
7 t..r.r..tf
8 t.........
9 ...rr.....

Turn = 4.
  0123456789
0 .t.....rr.
1 ...t.....t
2 t.t.ht....
3 t...hrr...
4 .rrf...r..
5 .....r....
6 .......tt.
7 tr......tt
8 t.........
9 ...rrr....

Turn = 6.
  0123456789
0 .t......rr
1 ...t.....t
2 trt.ht....
3 t.t.trr...
4 ...f.....r
5 ..........
6 .......tt.
7 rr...r..tt
8 .r.rr.....
9 ......r...

Turn = 8.
  0123456789
0 .t......rr
1 ...t....r.
2 ttt.tt....
3 t.t.ttt..r
4 ...f......
5 .r........
6 ...rr..tt.
7 ........tt
8 ...r......
9 r....r..r.

Turn = 10.
  0123456789
0 .t....r...
1 ...t..r..r
2 ttt.tt...r
3 trt.ttt...
4 ...rr.....
5 ...r......
6 .......tt.
7 ........tt
8 .....r....
9 .r..r....r

*** Darwin 10x10 ***
Turn = 0.
  0123456789
0 .......t..
1 r.........
2 .rt.......
3 h...hf....
4 ...f......
5 ..tf..th..
6 .f........
7 ....t..h.t
8 hhh....t..
9 ....f.fh..

Turn = 2.
  0123456789
0 .......t..
1 ..........
2 ..t.......
3 r.h..f....
4 .r.f......
5 h.tt..t..h
6 hf........
7 ....t...tt
8 ..h.h..t..
9 ....f.ft..

Turn = 4.
  0123456789
0 .......t..
1 ..........
2 ..t.......
3 h....f....
4 r..t......
5 rttt..t..h
6 rr........
7 ....t...tt
8 ....h.ht..
9 ....f.ft..

Turn = 6.
  0123456789
0 .......t..
1 ..........
2 ..t.......
3 h....f....
4 r..t......
5 rttt..t..h
6 .r........
7 ....t...tt
8 .r..t.tt..
9 ....f.tt..

Turn = 8.
  0123456789
0 .......t..
1 ..........
2 ..t.......
3 r....f....
4 r..t......
5 rttt..t..h
6 ...r......
7 ....t...tt
8 ....t.tt..
9 .r..t.tt..

Turn = 10.
  0123456789
0 .......t..
1 ..........
2 ..t.......
3 r....f....
4 r.rt......
5 .ttt..t..h
6 .....r....
7 ....t...tt
8 ....t.tt..
9 ...tt.tt..

*** Darwin 10x10 ***
Turn = 0.
  0123456789
0 ..t......t
1 .....f...r
2 ...hh...ht
3 .....h....
4 ..ft.f..f.
5 ..t.fh..h.
6 f....rh...
7 f..ff.r...
8 .r.....f..
9 .....h....

Turn = 2.
  0123456789
0 ..t.h....t
1 .....f.rh.
2 .h.......t
3 .....h....
4 ..tt.f..f.
5 ..t.fhr...
6 f....rr...
7 f..ff...r.
8 ...r...f..
9 .....h....

Turn = 4.
  0123456789
0 ..t.h...ht
1 .....rr...
2 h........t
3 .....h....
4 ..tt.f..f.
5 ..t.rrr...
6 f....r.r..
7 f..ff....r
8 .....r.f..
9 .....h....

Turn = 6.
  0123456789
0 ..t.hrr.ht
1 ..........
2 h........t
3 .....hr...
4 ..tt.f..f.
5 ..t......r
6 f...rr..r.
7 f..ff.....
8 .....rr.r.
9 .....h....

Turn = 8.
  0123456789
0 ..t.rr.rtt
1 ......r...
2 h........t
3 .....h...r
4 ..tt.f..f.
5 ..t.......
6 f..rr.....
7 f..r.r....
8 .....r.rrr
9 ....r.....

Turn = 10.
  0123456789
0 ..t.r.rrrt
1 .....r....
2 h.......rr
3 .....h....
4 ..tr.f..f.
5 ..tr......
6 f.....rr.r
7 fr....r...
8 .......r..
9 ..r.....r.

*** Darwin 10x10 ***
Turn = 0.
  0123456789
0 ...h......
1 .hrt..ht.r
2 .........r
3 ....rf.f..
4 ........h.
5 h.t..t....
6 ...t.....f
7 ...rt.t..r
8 h.......f.
9 .t...f...r

Turn = 2.
  0123456789
0 .hr..h....
1 ...tr..rr.
2 ....r.....
3 .....f.f.r
4 ..........
5 h.t..t....
6 ...t....hf
7 ...tt.tr.r
8 h.......f.
9 .t...f....

Turn = 4.
  0123456789
0 .rr....h..
1 ...rr.r...
2 .....r.r..
3 .....fr...
4 ..........
5 h.t..t...r
6 ...t.....r
7 ...ttrr.hr
8 h.......f.
9 .t...f....

Turn = 6.
  0123456789
0 .r.......h
1 .r..r.....
2 .......r..
3 ...rrrr...
4 .......r..
5 h.t..t..r.
6 ...t...r.r
7 ...ttrr.h.
8 h.......f.
9 .t...f....

Turn = 8.
  0123456789
0 r........h
1 ..r...r...
2 .........r
3 .r........
4 .....r...r
5 h.ttrr....
6 ...t.r.rr.
7 ...tttt.h.
8 h.......f.
9 .t...f....

Turn = 10.
  0123456789
0 ......r..h
1 r........r
2 r........r
3 ..........
4 ......r...
5 hrttt.....
6 ...ttt..r.
7 ...ttttt..
8 h.......rr
9 .t...f....

*** Darwin 10x10 ***
Turn = 0.
  0123456789
0 ..........
1 ...f.rr.h.
2 r.h.f.....
3 .h.r.....t
4 f.rh..f..r
5 .t.......h
6 ..f......f
7 .....f..t.
8 ...tr.r.f.
9 .th.......

Turn = 2.
  0123456789
0 ..h.......
1 ...f..h...
2 ....frr...
3 rh...r...r
4 .r.r..f..r
5 .t.....h..
6 ..fr..r..f
7 .....f..t.
8 ...t..r.f.
9 .t..h.....

Turn = 4.
  0123456789
0 ..h.......
1 ...fh.....
2 ....rr....
3 h.....rr.r
4 ...rrrr...
5 rt...rr...
6 ..f......f
7 ...t.f..t.
8 ...t...r.r
9 .t....h...

Turn = 6.
  0123456789
0 ..h.......
1 ...fh....r
2 ..rrr.....
3 h....r....
4 .....rrr..
5 .t.rr..r..
6 ..f......f
7 r..t.f..tr
8 ...t....r.
9 .t......h.

Turn = 8.
  0123456789
0 ..h......r
1 ...rr.....
2 rr..rrr...
3 h..r......
4 ......r...
5 .t.......r
6 ..fr.....r
7 ...rrf..rr
8 ...r....r.
9 rt.......h

Turn = 10.
  0123456789
0 ..h.rrrr..
1 r...r.....
2 ...r......
3 hrr.......
4 ....r....r
5 .t........
6 ..rr....rr
7 ..r..f..r.
8 .r.......r
9 tt..r....h

*** Darwin 10x10 ***
Turn = 0.
  0123456789
0 h.........
1 .f.t..t.t.
2 .....h..th
3 ..tf...tf.
4 hfr....t..
5 h.....htt.
6 ........f.
7 ..r.r.....
8 ...r.t....
9 .......h..

Turn = 2.
  0123456789
0 h.........
1 .f.t..t.t.
2 .......ht.
3 ..tf..httt
4 htt....t..
5 ..r.r..tt.
6 ..r.....f.
7 .......h..
8 ....tt....
9 ..........

Turn = 4.
  0123456789
0 h.........
1 .f.t..t.t.
2 ......htt.
3 ..ttr..ttt
4 ttt....t..
5 ..r....tt.
6 ..r....tt.
7 ..........
8 ....tt....
9 ..........

Turn = 6.
  0123456789
0 h.........
1 .f.tr.t.t.
2 ......ttt.
3 ..tt...ttt
4 ttt....t..
5 ..t....tt.
6 ..t....tt.
7 ..........
8 ....tt....
9 ..........

Turn = 8.
  0123456789
0 h...r.....
1 .f.t..t.t.
2 ......ttt.
3 ..tt...ttt
4 ttt....t..
5 ..t....tt.
6 ..t....tt.
7 ..........
8 ....tt....
9 ..........

Turn = 10.
  0123456789
0 h.....r...
1 .f.t..t.t.
2 ......ttt.
3 ..tt...ttt
4 ttt....t..
5 ..t....tt.
6 ..t....tt.
7 ..........
8 ....tt....
9 ..........

*** Darwin 10x10 ***
Turn = 0.
  0123456789
0 ...t..ff..
1 th.h..r...
2 ...f...f..
3 h.........
4 ...f.t..ff
5 ..........
6 .hfr.r.tt.
7 ...h.t...h
8 .rh.......
9 ...f......

Turn = 2.
  0123456789
0 ...t..ff..
1 t..t....r.
2 .h.f...f..
3 ..h.......
4 ...f.r..ff
5 .....r....
6 ..f..r.tt.
7 .....t....
8 .hhh......
9 .r.f.....h

Turn = 4.
  0123456789
0 ...t..ff..
1 t..t.....r
2 ...t...f..
3 ...t......
4 .h.f..r.ff
5 ......r...
6 ..f...rr..
7 .....t..r.
8 ..hh......
9 rh.f.....h

Turn = 6.
  0123456789
0 ...t..ff..
1 t..t......
2 ...t...f..
3 ...t.....r
4 ...f...rrf
5 ........r.
6 .hf......r
7 r....tr...
8 ..hh......
9 .h.f....rh

Turn = 8.
  0123456789
0 ...t..ff..
1 t..t......
2 ...t...f..
3 ...t...r..
4 ...t...r.r
5 r........r
6 ..f.....rr
7 .....tt...
8 .hhh......
9 .h.f...r.h

Turn = 10.
  0123456789
0 ...t..ff..
1 t..t......
2 ...t...r..
3 r..t...r..
4 ...t.r..rr
5 .........r
6 ..f.......
7 .....tt...
8 .hhh....r.
9 .h.f.r...h

*** Darwin 10x10 ***
Turn = 0.
  0123456789
0 .....r.fh.
1 ....r.h.t.
2 t........r
3 ..ft...fh.
4 ..........
5 ..t...fh..
6 ......r..t
7 ..fr..h..h
8 .f.....r.r
9 t.f.r....r

Turn = 2.
  0123456789
0 ...r...fh.
1 ......r.t.
2 t.......t.
3 ..tt..hf.h
4 ..........
5 ..t..rr...
6 ......r..t
7 .rr...h..r
8 .f...r...r
9 t.f...r..r

Turn = 4.
  0123456789
0 .r.....fh.
1 .......r.r
2 t.......t.
3 ..tt...f.h
4 ......r...
5 ..trr.r...
6 ......h..t
7 rr.......t
8 .f.r.....t
9 t.f.....rr

Turn = 6.
  0123456789
0 r......fh.
1 ........tt
2 t.......t.
3 ..tt...f.h
4 ....r..r..
5 rrr...hr..
6 .r.......t
7 .........t
8 .rr.....rt
9 t.f......t

Turn = 8.
  0123456789
0 .......ft.
1 r.......tt
2 ....r...t.
3 r.tt..hf.h
4 r........r
5 rr.......r
6 .r.r....rt
7 .........t
8 r........t
9 t.f......t

Turn = 10.
  0123456789
0 ....r..tt.
1 ......h.tt
2 r.......t.
3 .rtt...f.r
4 ..r.....rr
5 ..r......r
6 r....r...r
7 r........t
8 t........t
9 t.f......t

*** Darwin 10x10 ***
Turn = 0.
  0123456789
0 tfh..t.t.h
1 ..........
2 t..r......
3 ..t...rhr.
4 r........r
5 ...r..r.r.
6 r.t...r.t.
7 f...t.....
8 .r...hf...
9 ......h...

Turn = 2.
  0123456789
0 tfh..t.t..
1 ......r...
2 t....r...h
3 ..t.....hr
4 r.r....r..
5 ....rrr...
6 ..t.....t.
7 f...t.r...
8 r....r....
9 .....hh...

Turn = 4.
  0123456789
0 ttt..ttt..
1 ..........
2 t......r..
3 t.t.rr..hh
4 ...r.r....
5 ....r....r
6 r.t.....t.
7 r...t.....
8 ...r..r...
9 .....rr...

Turn = 6.
  0123456789
0 ttt..ttt..
1 ....rr....
2 t........r
3 t.t......h
4 r..rr.....
5 r........h
6 ..tr....t.
7 ....t....r
8 .r....rr..
9 .....r....

Turn = 8.
  0123456789
0 ttt.rrtt..
1 .....r...r
2 r...r.....
3 r.t......h
4 rr........
5 .r........
6 ..tt..r.tt
7 ....t.....
8 r.......r.
9 ......r..r

Turn = 10.
  0123456789
0 ttt.rttt.r
1 ...r......
2 .r...r....
3 .rt......h
4 ......r...
5 rrt.......
6 ..tt....rt
7 ....t...r.
8 ..........
9 r.......rr

*** Darwin 10x10 ***
Turn = 0.
  0123456789
0 ..h...t...
1 t...h...f.
2 .fh.....f.
3 .t....f...
4 f..f...r..
5 ...t.f.h..
6 ....f....r
7 .h.t..r..h
8 ..t......t
9 r..r....t.

Turn = 2.
  0123456789
0 h...h.t...
1 t.......f.
2 .th.....f.
3 .t....f...
4 f..t.....r
5 .h.t.f....
6 ....f.....
7 ...tr..hhr
8 ..t......t
9 ..r.r...t.

Turn = 4.
  0123456789
0 t...h.t...
1 t.......f.
2 .tt.....f.
3 .t....f...
4 ft.t......
5 ...t.f...r
6 ....f.....
7 ..rr..h..r
8 ..t.......
9 ....r.rhtt

Turn = 6.
  0123456789
0 t...h.t...
1 t.......f.
2 .tt.....f.
3 .t....f...
4 tt.t......
5 ...t.f....
6 ....f.....
7 rr..h..r.r
8 ..t.......
9 .....rrrtt

Turn = 8.
  0123456789
0 t...h.t...
1 t.......f.
2 .tt.....f.
3 .t....f...
4 tt.t......
5 ...t.f....
6 r...f.....
7 ..h..rrr..
8 .rt..r...t
9 ........tt

Turn = 10.
  0123456789
0 t...h.t...
1 t.......f.
2 .tt.....f.
3 .t....f...
4 tt.t......
5 t..t.frr..
6 ....f.....
7 h..r......
8 ..t....r.t
9 .r......tt

*** Darwin 10x10 ***
Turn = 0.
  0123456789
0 ........t.
1 r.t..h..hh
2 f.....h..t
3 .h..thr...
4 .r.rr.....
5 .h...f..f.
6 .f......t.
7 r.h...t...
8 f..r.....h
9 .......r..

Turn = 2.
  0123456789
0 ........th
1 .tth....t.
2 f...h....t
3 ....rrr...
4 rh..r.r...
5 h.h..f..t.
6 rf......t.
7 ......t...
8 f........h
9 ...r.....r

Turn = 4.
  0123456789
0 ........tt
1 .ttt....t.
2 r.h..r...t
3 r.h....r..
4 ....r.r.t.
5 rh...f..t.
6 rf......t.
7 ......t...
8 f........r
9 .r.......r

Turn = 6.
  0123456789
0 .....r..tt
1 .ttt....t.
2 rhh......t
3 rr......rr
4 .......r..
5 .h...f..t.
6 r...r...t.
7 .r....t...
8 f........r
9 r........r

Turn = 8.
  0123456789
0 ......r.tt
1 .ttt....t.
2 r.t.....tt
3 rr.r.....t
4 r........r
5 .....f..t.
6 ........t.
7 .h....t...
8 f...r....r
9 rr......r.

Turn = 10.
  0123456789
0 r......rrt
1 .ttt....t.
2 ..t.....tt
3 r....r...t
4 r........t
5 .r...f..t.
6 ........t.
7 ......t...
8 fh.....r..
9 rr..r.r...

*** Darwin 10x10 ***
Turn = 0.
  0123456789
0 ..f.rf...t
1 ..fht..r.f
2 .ft......r
3 .......f.t
4 t....h....
5 ..f.f.....
6 ..........
7 ..f.tt....
8 ........t.
9 fr...fr.ft

Turn = 2.
  0123456789
0 ..f..f.r.t
1 ..f.r.r..t
2 .ftt...r..
3 .......f.t
4 t..h......
5 ..f.f.....
6 ..........
7 ..f.tt....
8 ........t.
9 f..r.f.rrr

Turn = 4.
  0123456789
0 ..f..f..rt
1 ..t.....rt
2 .ftttr....
3 .......f.t
4 th........
5 ..f.f.....
6 ..........
7 ..f.tt....
8 .....r..t.
9 f...r..rrr

Turn = 6.
  0123456789
0 ..t..f..rr
1 ..t.....rr
2 .ttttt....
3 .......f.t
4 th........
5 ..f.f.....
6 .....r....
7 ..f.tr....
8 ........r.
9 f.....rrrr

Turn = 8.
  0123456789
0 ..t..f..rr
1 ..t.....r.
2 .ttttt...r
3 .......f.r
4 tt...r....
5 ..f.f.....
6 ..........
7 ..f.tt...r
8 .......rr.
9 f.....r..r

Turn = 10.
  0123456789
0 ..t..f.r.r
1 ..t...r...
2 .ttttt...r
3 .....t.rr.
4 tt........
5 ..f.f....r
6 .......r..
7 ..f.tt....
8 .........r
9 f...r...r.

*** Darwin 10x10 ***
Turn = 0.
  0123456789
0 ..t....hh.
1 ...h...t.h
2 t.....tt..
3 .t.hfh..h.
4 ....t..h.t
5 ......f.h.
6 ..f.....rr
7 ...f..h...
8 ..ff.....h
9 .......t.r

Turn = 2.
  0123456789
0 ..t..hh...
1 .......tt.
2 t.....tt..
3 .t.hf..h..
4 ...tt...rt
5 ......f.rh
6 ..f....h..
7 ...f....hr
8 ..ff.....r
9 .......tr.

Turn = 4.
  0123456789
0 ..thh.....
1 .......tt.
2 t.....tt..
3 .t.tf....h
4 ...tt..r.t
5 ......f.rr
6 ..f.......
7 ...f....rr
8 ..ff...rr.
9 .......rr.

Turn = 6.
  0123456789
0 ..thh.....
1 .......tt.
2 t.....tt..
3 .t.tt....h
4 ...ttr...t
5 ......f..r
6 ..f......r
7 ...f....rr
8 ..ff...rr.
9 .......rr.

Turn = 8.
  0123456789
0 ..tth.....
1 .......tt.
2 t.....tt..
3 .t.tt....t
4 ...trr...r
5 ......f..r
6 ..f....r.r
7 ...f...rr.
8 ..ff..r.r.
9 .....r....

Turn = 10.
  0123456789
0 ..ttt.....
1 .......tt.
2 t.....tt.r
3 .t.tt....r
4 ...ttt....
5 ......f..r
6 ..f..r...r
7 ...f.r...r
8 ..ffr.r...
9 ...r......

*** Darwin 10x10 ***
Turn = 0.
  0123456789
0 t......h..
1 ...hf.t..h
2 h.hf.th..t
3 .f......hf
4 ht.......r
5 .....h....
6 .....r..rh
7 .f........
8 .....tr..h
9 ......f.h.

Turn = 2.
  0123456789
0 t.........
1 .hh.f.t..t
2 h..f.ttt.t
3 .t...h...r
4 ht...r...r
5 ........hr
6 .........r
7 .f......h.
8 .....t....
9 .....tr..h

Turn = 4.
  0123456789
0 t.h.......
1 t...f.t..t
2 h..f.rtt.t
3 .t...r..r.
4 tt...r.r..
5 .........r
6 ........h.
7 .f......hr
8 .....t....
9 .....tt..h

Turn = 6.
  0123456789
0 t.h.......
1 t...f.t..t
2 t..frrtt.t
3 .t....r...
4 tt.r.r....
5 .......r..
6 ........h.
7 .f......h.
8 .....t...r
9 .....tt..r

Turn = 8.
  0123456789
0 t.h..r....
1 t...f.t..t
2 t..r..tt.t
3 .t.r..t...
4 trrr......
5 .....r....
6 ........h.
7 .f......h.
8 .....t..rr
9 .....tt...

Turn = 10.
  0123456789
0 t.h...r...
1 t...f.t..t
2 tt....tt.t
3 .tr...t...
4 rrr.......
5 ...r......
6 .r......hr
7 .f......h.
8 .....tr...
9 .....tt...

*** Darwin 10x10 ***
Turn = 0.
  0123456789
0 .h.t.....r
1 ..fr.r.r..
2 .rt.t...r.
3 .t.h.f.r..
4 .....f.f..
5 f.........
6 ..t....h..
7 .f.f.r....
8 f.f..f..r.
9 .........h

Turn = 2.
  0123456789
0 ..ht...rr.
1 ..rr...rr.
2 r.r.tr....
3 .t..hr....
4 ....r..f..
5 f....r....
6 ..t..h....
7 .f.f......
8 f.f..f...r
9 .........h

Turn = 4.
  0123456789
0 r.tr...rr.
1 .r.r..r..r
2 ...rrr....
3 .t..rrr...
4 ..r....f..
5 f.........
6 ..th.....r
7 .f.f......
8 f.f..f....
9 .........h

Turn = 6.
  0123456789
0 r.tt.r.r..
1 r..rr.....
2 ...rrr....
3 .t..r.r.rr
4 .t.....f.r
5 f.........
6 ..th......
7 .f.f......
8 f.f..f....
9 .........h

Turn = 8.
  0123456789
0 .ttrrr....
1 ..r.r.....
2 ..rrr.....
3 rt.....rr.
4 .t...r.frr
5 f.........
6 ..tt......
7 .f.t......
8 f.f..f....
9 .........h

Turn = 10.
  0123456789
0 .tr.rr....
1 r.rrr.....
2 .tr.....rr
3 .t.....r..
4 tt......r.
5 .r........
6 ..tt.r..r.
7 .f.t......
8 f.f..f....
9 .........h

*** Darwin 10x10 ***
Turn = 0.
  0123456789
0 .....t.hf.
1 ht......h.
2 .f..hh....
3 .......r.h
4 ...h....fh
5 ...fh...t.
6 ...r...f..
7 ...f......
8 .....hf...
9 rfrr...f..

Turn = 2.
  0123456789
0 .....t.hf.
1 ht...h.r.h
2 .f........
3 ....h..h..
4 ...hh...th
5 ...f....t.
6 .r.....f..
7 ...f......
8 .r...hf...
9 r.rr...f..

Turn = 4.
  0123456789
0 .....t.rf.
1 tt...t.r.h
2 .f........
3 ....hh....
4 ...hh...tt
5 ...f....t.
6 rr.....f..
7 ...r......
8 ...r.hf...
9 .r.r...f..

Turn = 6.
  0123456789
0 .....t..rr
1 tt...t..rr
2 .t........
3 ....hh....
4 .r.hh...tt
5 ...f....t.
6 ...r...f..
7 .....r....
8 r....hf...
9 ...r.r.f..

Turn = 8.
  0123456789
0 .....t..rr
1 tt...t..rr
2 .r........
3 .r..hh....
4 ...hh...tt
5 ...r....t.
6 ...r...f..
7 .......r..
8 .....hf...
9 r....rrr..

Turn = 10.
  0123456789
0 .....t..rr
1 tt...tr..r
2 .t........
3 ..r.hh....
4 ....h...tt
5 ...h.r..t.
6 .....r.f..
7 .........r
8 r....hr...
9 .....rr..r

*** Darwin 10x10 ***
Turn = 0.
  0123456789
0 ...f......
1 ..f..f...t
2 .h........
3 .tf..r.t..
4 ...ff.f...
5 t.f..f.r..
6 tr.....f..
7 ....t...f.
8 ..r.......
9 ........t.

Turn = 2.
  0123456789
0 .h.f......
1 ..f..f...t
2 ..........
3 .tt....r..
4 ...ffrfr..
5 t.f..r....
6 r......f..
7 r...t...f.
8 ....r.....
9 ........t.

Turn = 4.
  0123456789
0 .h.f......
1 ..f..f.r.t
2 .......r..
3 .tt.......
4 ...ffr.r..
5 t.f....r..
6 t......f..
7 ....t...f.
8 ......r...
9 r.......t.

Turn = 6.
  0123456789
0 .h.f...r..
1 ..f..f.r.t
2 ..........
3 .tt.......
4 ...ff..r.r
5 t.f......r
6 t......f..
7 ....t...f.
8 ........t.
9 r.......t.

Turn = 8.
  0123456789
0 .h.f.....r
1 ..f..f..rr
2 ..........
3 .tt......r
4 ...ff...rr
5 t.f.......
6 t......f..
7 r...t...t.
8 ........t.
9 ........t.

Turn = 10.
  0123456789
0 .h.f.....r
1 ..f..f....
2 ........rr
3 .tt.....r.
4 ...ff....r
5 r.f.......
6 r......fr.
7 r...t...t.
8 ........t.
9 ........t.

*** Darwin 10x10 ***
Turn = 0.
  0123456789
0 rr........
1 ..tr......
2 ..r......t
3 ...f..f..r
4 .hh.......
5 .fh.h.r...
6 .hh.r.....
7 ......t...
8 ..f..hr.f.
9 ...f..h...

Turn = 2.
  0123456789
0 r.........
1 ..tt......
2 .r.......t
3 .hrf..fr..
4 ..r.......
5 .fh..rr...
6 h.....r...
7 ..h...t...
8 ..fh..t.f.
9 ...f..h...

Turn = 4.
  0123456789
0 r.........
1 ..tt......
2 .r....r..t
3 r.r.r.r...
4 ....r.r...
5 .fh.......
6 h.......r.
7 ..h..rt...
8 ..fh..t.f.
9 ...f..t...

Turn = 6.
  0123456789
0 ..r...r...
1 ..tt......
2 r........t
3 r...rrr...
4 .....rr...
5 .fh.......
6 h........r
7 ..h...t...
8 ..fh..t.f.
9 ...f.rt...

Turn = 8.
  0123456789
0 r..t.r....
1 ..tt.r....
2 r....r...t
3 ........r.
4 ....rr....
5 .fh.......
6 h.........
7 ..h...t...
8 ..fh..t.fr
9 ...f.rr...

Turn = 10.
  0123456789
0 rr.rrr....
1 ..tt.r....
2 .........t
3 .........r
4 ..........
5 .fh.......
6 h...rr....
7 ..h...t...
8 ..fh..t.f.
9 ...f.rr..r

*** Darwin 10x10 ***
Turn = 0.
  0123456789
0 .t........
1 t.......tr
2 ........h.
3 .h....f...
4 h.t.......
5 ....r.h...
6 r.tf.r.t..
7 .r...h...t
8 .hf.rh..h.
9 ..........

Turn = 2.
  0123456789
0 .t........
1 t.......tt
2 ........h.
3 h.....f...
4 ..t...h...
5 r.r.......
6 r.tt..rrh.
7 ...rr....t
8 rrf.h.....
9 ..........

Turn = 4.
  0123456789
0 .t........
1 t.......tt
2 ........h.
3 h.....f...
4 r.t...hrh.
5 r.t.r.r...
6 r.tt......
7 .r.......t
8 ..fh......
9 .r........

Turn = 6.
  0123456789
0 .t........
1 t.......tt
2 .......rt.
3 r...r.r.h.
4 r.t...r...
5 .rt...r...
6 .rtt......
7 r........t
8 ..fh......
9 ...r......

Turn = 8.
  0123456789
0 .t.....r..
1 t...r...tt
2 ........t.
3 r......tt.
4 .tt..r....
5 rrr.r.....
6 .rtt......
7 .........t
8 ..fh......
9 .....r....

Turn = 10.
  0123456789
0 .t..r.r...
1 t.......tt
2 ........t.
3 .......tt.
4 ttrr......
5 rrrr......
6 ..tt......
7 .........t
8 .rfh......
9 .......r..

*** Darwin 10x10 ***
Turn = 0.
  0123456789
0 ...hhf.f..
1 ...t....t.
2 r.....t.h.
3 h....ht.f.
4 ..........
5 .r.frr....
6 t...h.....
7 ...rf.....
8 ..f....t.f
9 ..h.......

Turn = 2.
  0123456789
0 ...thf.f..
1 r..t....t.
2 ......t.t.
3 ......t.t.
4 .....r....
5 h..frr....
6 tt.r......
7 .r..f.....
8 ..f....t.f
9 ....h.....

Turn = 4.
  0123456789
0 r..thf.f..
1 ...t....t.
2 ......t.t.
3 ......t.t.
4 ...r......
5 t..rr..r..
6 trr.......
7 r...f.....
8 ..f....t.f
9 ......h...

Turn = 6.
  0123456789
0 ..rttf.f..
1 ...t....t.
2 ......t.t.
3 ...r..t.t.
4 .r........
5 t.r......r
6 rr..r.....
7 r.........
8 ..f.r..t.f
9 ........h.

Turn = 8.
  0123456789
0 ..rrr..f..
1 ...t.r..t.
2 ...t..t.t.
3 ..r...t.t.
4 r........r
5 r.........
6 r.........
7 r.........
8 .rf.r..t.f
9 ....r....h

Turn = 10.
  0123456789
0 .r.r..rf..
1 ..r.r...t.
2 ...t..t.t.
3 .....tt.tt
4 r.........
5 r.........
6 ..........
7 r.........
8 ..f..r.t.f
9 rrr......h

*** Darwin 10x10 ***
Turn = 0.
  0123456789
0 ......t..h
1 f.......f.
2 ......rr..
3 ....hr.h..
4 ...f..th..
5 .th..f..t.
6 r.ffhr..fr
7 .htf......
8 ..t.......
9 .....r....

Turn = 2.
  0123456789
0 ......tr..
1 f......rf.
2 ....r..h..
3 ..........
4 ...f.rt...
5 .tt.h.rtt.
6 ..tth...f.
7 ..tt......
8 r.t..r...r
9 .h.r......

Turn = 4.
  0123456789
0 ......rr..
1 f......rr.
2 ..r....h..
3 ..........
4 ...f..t...
5 .tt.h.rr..
6 ..tttr..rr
7 ..tt......
8 ..t.......
9 rrr..r...r

Turn = 6.
  0123456789
0 .....r.rr.
1 f......r..
2 r......h..
3 ..........
4 ...f..t..r
5 .tt.h.t...
6 ..tttt....
7 ..tt...r..
8 ..t.....r.
9 tttr...r..

Turn = 8.
  0123456789
0 ...r..rhr.
1 f....r....
2 .........r
3 r.........
4 ...f..t...
5 .tt.t.t...
6 ..tttt....
7 ..tt......
8 ..t.......
9 ttrr.r.rr.

Turn = 10.
  0123456789
0 .r..r..h.r
1 f..r.....r
2 ..........
3 ..........
4 ...f..t...
5 rtt.t.t...
6 ..tttt....
7 ..tt......
8 ..t.......
9 ttttt.r..r

*** Darwin 10x10 ***
Turn = 0.
  0123456789
0 r...ft...r
1 ........r.
2 .f.t..ft..
3 .....t...r
4 .hf...f...
5 r.....h...
6 ...h.r..t.
7 .r......hf
8 ..........
9 t.rh.h.f.h

Turn = 2.
  0123456789
0 ....tt...r
1 .........r
2 rf.t..tt..
3 r....t..r.
4 .hf...f...
5 ....h.....
6 ...r....t.
7 .....hh..f
8 ...h.....h
9 tr.r.r.f..

Turn = 4.
  0123456789
0 ....tt...r
1 .........r
2 rf.t..tt..
3 .r...t....
4 .hf...f...
5 ..h..h..r.
6 .r......t.
7 ....h....f
8 .........h
9 t.rh.rrr..

Turn = 6.
  0123456789
0 r...tt...r
1 ..........
2 .f.t..tt..
3 ...r.t...r
4 .hf..hf...
5 h.......r.
6 r......r..
7 ..h......f
8 ......r..h
9 t.rr.r..r.

Turn = 8.
  0123456789
0 .r..tt..r.
1 ..........
2 .f.t..tt..
3 ....rr....
4 .hf..hf..r
5 h........r
6 .....rr...
7 h........f
8 r........h
9 t.rrr....r

Turn = 10.
  0123456789
0 ...rttr...
1 .....r....
2 .f.t.htt..
3 ..........
4 .hf.r.rr..
5 h.....r...
6 ...r.....r
7 h..r.....r
8 .........r
9 rrrr.....r

*** Darwin 10x10 ***
Turn = 0.
  0123456789
0 t...f.....
1 h.......r.
2 .f.....r..
3 h....rr..r
4 ...t......
5 h....h.t.t
6 ...rr...t.
7 .t..t.....
8 ht........
9 ....ht....

Turn = 2.
  0123456789
0 t...f.....
1 h.....r...
2 .f.......r
3 h.h....r..
4 ...t.r....
5 .....rtt.t
6 ....r...t.
7 .t.rr.....
8 tt........
9 ....ht....

Turn = 4.
  0123456789
0 t...f.....
1 t...r.....
2 hf........
3 ....hr...r
4 ...tr.....
5 ......rt.t
6 .....r..t.
7 .t...rr...
8 tt........
9 ...rtt....

Turn = 6.
  0123456789
0 t...f.....
1 t.r.......
2 tf........
3 ....rr....
4 ...r.....r
5 ...r.r.rrr
6 .......rt.
7 .t........
8 tt........
9 ..r.ttt...

Turn = 8.
  0123456789
0 t...f.....
1 tt........
2 tf........
3 ..........
4 .r...r.rr.
5 ....r.rr.r
6 ........rr
7 .t.r......
8 tt........
9 .t..ttt...

Turn = 10.
  0123456789
0 t...f.....
1 tt........
2 tt.....r..
3 ..........
4 r.....rr..
5 ......r.r.
6 .........r
7 .t..r.....
8 tt......rr
9 .t.rttt...

*** Darwin 10x10 ***
Turn = 0.
  0123456789
0 .h..h...t.
1 ........tf
2 ....r....f
3 ..h...t...
4 ..r.hht.tr
5 ..........
6 ..........
7 r..t.hrt..
8 .tf...r...
9 r...f.ft..

Turn = 2.
  0123456789
0 .h....h.t.
1 ........tt
2 ......r..f
3 ....h.t...
4 ....httrr.
5 .....h....
6 ..r.......
7 ...tr..t..
8 rtt...r...
9 .r..fr.t..

Turn = 4.
  0123456789
0 .h.....ht.
1 ........tt
2 ........tt
3 .....tt.r.
4 ....htr...
5 .....hr...
6 ..........
7 r.rtt..t..
8 .tr.r.....
9 ...rrr.t..

Turn = 6.
  0123456789
0 .h.....tt.
1 ........tt
2 ........rt
3 .....tt.r.
4 ....rrr...
5 r....h....
6 ..........
7 .r.ttrrt..
8 .t.rr.....
9 ...rr..t..

Turn = 8.
  0123456789
0 .h.....tt.
1 ........tt
2 ........tt
3 r...rtt.t.
4 .....tt...
5 .....r....
6 .....r....
7 r..tt..t..
8 .t.t.r....
9 ...tt.tt..

Turn = 10.
  0123456789
0 .h.....tt.
1 r...r...tt
2 ........tt
3 .....tt.t.
4 .....tt...
5 r....t....
6 .....r....
7 ...ttr.t..
8 .t.t......
9 ...tt.tt..

*** Darwin 10x10 ***
Turn = 0.
  0123456789
0 rf.f....t.
1 r.........
2 ....hf....
3 ...r....tf
4 .fh.......
5 ......h...
6 ......rt..
7 f..rt..rfh
8 .h.hf.f...
9 .......h..

Turn = 2.
  0123456789
0 rf.f....t.
1 r..r......
2 ....hf....
3 ......h.tf
4 .fh...r...
5 ..........
6 .......t..
7 f...r.rtth
8 hh..f.f...
9 .......h..

Turn = 4.
  0123456789
0 rr.r....t.
1 .r.r..h...
2 ....hfr...
3 ........tt
4 .fh.......
5 .......r..
6 .......r..
7 f....rr.tt
8 hh..f.f...
9 .......h..

Turn = 6.
  0123456789
0 .rr...r.t.
1 r..r.rr...
2 ....hf....
3 .......rtt
4 .fh....r..
5 ......r...
6 ..........
7 f.......tt
8 hh..f.f...
9 .....r.h..

Turn = 8.
  0123456789
0 .r...r..t.
1 ....rrrr..
2 .r..hf.r..
3 r.....r.tt
4 .fh.......
5 ..........
6 ..........
7 f.......tt
8 hh..f.f...
9 ......rh..

Turn = 10.
  0123456789
0 r..r.rrrt.
1 ....r..r..
2 .....r.r..
3 .r...r..tt
4 .rr.......
5 r.........
6 ..........
7 f.......tt
8 hh..f.f...
9 ......r.r.

*** Darwin 10x10 ***
Turn = 0.
  0123456789
0 f....f....
1 .h........
2 .........h
3 ......r...
4 .h.h..h...
5 ..h.r.t.t.
6 .......t..
7 .r.h...h.r
8 .t...f..h.
9 ...r.h.r..

Turn = 2.
  0123456789
0 fh...f....
1 ......r...
2 .........h
3 ..........
4 ...h.h..h.
5 ..r...t.t.
6 ..h....th.
7 ...r.h....
8 .t...f.h..
9 ..r...h.rr

Turn = 4.
  0123456789
0 fh...fr...
1 ..........
2 .........h
3 ..........
4 .....h.h.h
5 r.....t.t.
6 .......th.
7 .....r.h..
8 .tt..f....
9 r.....hhrr

Turn = 6.
  0123456789
0 fh...f..r.
1 ..........
2 .........h
3 ..........
4 .......hhh
5 ......t.t.
6 r......tt.
7 .......r.h
8 rtt..f....
9 ......hrrr

Turn = 8.
  0123456789
0 fh...f...r
1 ..........
2 .........h
3 ..........
4 .......hth
5 ......t.t.
6 .......tt.
7 r.......rr
8 rtt..f..r.
9 ......hr.r

Turn = 10.
  0123456789
0 fh...f...r
1 ..........
2 .........h
3 ..........
4 .......htt
5 ......t.tr
6 .......tr.
7 r.......rr
8 .rt..fr...
9 .r....rr..

*** Darwin 10x10 ***
Turn = 0.
  0123456789
0 ...h.....f
1 .f...h.h..
2 .......tt.
3 ....hr....
4 ...t....r.
5 .f....h...
6 ..........
7 hr..fr...t
8 .tfh....t.
9 ..........

Turn = 2.
  0123456789
0 .....h...f
1 .f....ht..
2 .......tt.
3 ....rrh...
4 ...t.....r
5 .f........
6 ..........
7 h..rf....t
8 .tf.....t.
9 ...h.r....

Turn = 4.
  0123456789
0 .......t.f
1 .f....ht..
2 ......htt.
3 ..........
4 ...tt.....
5 .f...r....
6 .........r
7 h...r.r..t
8 .tt.....t.
9 ...hr.....

Turn = 6.
  0123456789
0 .......t.f
1 .f....tt..
2 ......htt.
3 ..........
4 ...tt.....
5 .f........
6 .....r....
7 h.....r.rr
8 .tt.....tt
9 ...rr.....

Turn = 8.
  0123456789
0 .......t.f
1 .f....tt..
2 ......ttt.
3 ..........
4 ...tt.....
5 .f........
6 ...r....r.
7 h......r.t
8 .tt.....tt
9 .r.r......

Turn = 10.
  0123456789
0 .......t.f
1 .f....tt..
2 ......ttt.
3 ..........
4 ...tt...r.
5 .f........
6 .r........
7 h........t
8 .tt.....tt
9 rr.....r..

*** Darwin 10x10 ***
Turn = 0.
  0123456789
0 .f.....r..
1 ht...r....
2 ..r....r..
3 ..........
4 ....ff.fff
5 .r...f....
6 .t...t...h
7 .......h..
8 t.h.f....h
9 r....rtft.

Turn = 2.
  0123456789
0 hf...r..r.
1 .t........
2 .t........
3 .......r..
4 ....ffr.ff
5 ...r.f...h
6 .t...t...h
7 .....r..h.
8 t..hf.....
9 t.....ttt.

Turn = 4.
  0123456789
0 hf.r.....r
1 .t........
2 .t........
3 ..........
4 ....frr.ff
5 ....rr.r.h
6 .t...r...h
7 .....r...h
8 t..hf.....
9 t.....ttt.

Turn = 6.
  0123456789
0 htt.......
1 .t........
2 .t....r..r
3 ..........
4 ....rr..ff
5 ...r.r...h
6 .t..r....h
7 ...r...r.h
8 t..hf.....
9 t.....ttt.

Turn = 8.
  0123456789
0 htt...r...
1 .t........
2 .t..r.....
3 .....r...r
4 ...r....rr
5 .r.......h
6 .t....r..h
7 .r.......h
8 t..hf..r..
9 t.....trt.

Turn = 10.
  0123456789
0 ttt.rr....
1 .t...r....
2 .t........
3 ........r.
4 .r.......r
5 r.......rr
6 .t......rh
7 r........h
8 t..hf...t.
9 t.....rrt.

*** Darwin 10x10 ***
Turn = 0.
  0123456789
0 .tfr......
1 ..h.t.....
2 ..f..hr.ft
3 hrr.f..ht.
4 .......t..
5 ........t.
6 ...rh.....
7 ..r.r.....
8 .....f....
9 ......t...

Turn = 2.
  0123456789
0 .ttt..r...
1 h.h.t.....
2 ..f.t...ft
3 r...f..tt.
4 .......t..
5 .r......t.
6 ..........
7 r...h.r...
8 ...r.f....
9 ......t...

Turn = 4.
  0123456789
0 tttt...r..
1 ..h.t.....
2 ..f.t...tt
3 ....t..tt.
4 r......t..
5 ........t.
6 r.........
7 .r......r.
8 .....f....
9 ...rh.t...

Turn = 6.
  0123456789
0 tttt.....r
1 ..t.t.....
2 ..t.t...tt
3 ....t..tt.
4 .......t..
5 r.......t.
6 .r........
7 .........r
8 .....f....
9 .rr.h.t...

Turn = 8.
  0123456789
0 tttt......
1 ..t.t....r
2 ..t.t...tt
3 ....t..tt.
4 r......t..
5 ........tr
6 ...r......
7 ..........
8 .....f....
9 .rr.h.t...

Turn = 10.
  0123456789
0 tttt......
1 ..t.t.....
2 r.t.t...tt
3 ....t..ttr
4 .......t.r
5 ........t.
6 .....r....
7 .rr.......
8 .....f....
9 ....h.t...
